{
  "type": "object",
  "required": [
    "sha",
    "created_at",
    "finished_at",
    "iid",
    "tag",
    "last?",
    "ref",
    "id"
  ],
  "properties": {
    "created_at": { "type": "string" },
    "finished_at": { "type": ["string", "null"] },
    "id": { "type": "integer" },
    "iid": { "type": "integer" },
    "last?": { "type": "boolean" },
    "ref": {
      "type": "object",
      "required": [
        "name"
      ],
      "properties": {
        "name": { "type": "string" },
        "ref_path": { "type": "string" }
      },
      "additionalProperties": false
    },
    "sha": { "type": "string" },
    "tag": { "type": "boolean" },
    "user": {
      "oneOf": [
        { "type": "null" },
        { "$ref": "entities/user.json" }
      ]
    },
    "commit": {
      "oneOf": [
        { "type": "null" },
        { "$ref": "entities/commit.json" }
      ]
    },
    "deployable": {
      "oneOf": [
        { "type": "null" },
        { "$ref": "job/job.json" }
      ]
    },
    "manual_actions": {
      "type": "array",
      "items": { "$ref": "job/job.json" }
    },
    "scheduled_actions": {
      "type": "array",
      "items": { "$ref": "job/job.json" }
    }
  },
  "additionalProperties": false
}
